{"genres":[
    {
     "id":"1",
     "Name":"some Genre",
     "books":[
              {
                "id":1,
                "name":"four years at 2ch"
              }
             ]
    },
    {
     "id":"2",
     "Name":"some new Genre",
     "books":[
              {
                "id":2,
                "name":"rap is my bread"
              }
             ]
    },
    {
     "id":"3",
     "Name":"cool Genre",
     "books":[
              {
                "id":3,
                "name": "Gordon Freeman saved my life"
              }
             ]
    }]
  
}